…
$df1
# A tibble: 2,500 × 3
       x     y    A1
   <dbl> <dbl> <dbl>
 1   0.5   0.5    38
 2   1.5   0.5    49
 3   2.5   0.5    64
 4   3.5   0.5    65
 5   4.5   0.5    69
 6   5.5   0.5    55
 7   6.5   0.5    38
 8   7.5   0.5    63
 9   8.5   0.5    69
10   9.5   0.5    59
# ℹ 2,490 more rows

$df2
# A tibble: 2,500 × 3
       x     y    A1
   <dbl> <dbl> <dbl>
 1   0.5   0.5    41
 2   1.5   0.5    26
 3   2.5   0.5    35
 4   3.5   0.5    31
 5   4.5   0.5    24
 6   5.5   0.5    26
 7   6.5   0.5    26
 8   7.5   0.5    19
 9   8.5   0.5    11
10   9.5   0.5     9
# ℹ 2,490 more rows
…
Linking to GEOS 3.11.0, GDAL 3.5.3, PROJ 9.1.0; sf_use_s2() is TRUE
> prec_file = system.file("nc/test_stageiv_xyt.nc", package = "stars")
> prec <- read_ncdf(prec_file)
no 'var' specified, using Total_precipitation_surface_1_Hour_Accumulation
other available variables:
 lat, lon, time
Will return stars object with 236118 cells.
No projection information found in nc file. 
 Coordinate variable units found to be degrees, 
 assuming WGS84 Lat/Lon.
> prec2 <- prec %>% slice(time, 1:5)
> hov <- hovmoller(prec2)
> hov
$hov_df
# A tibble: 125 × 3
# Groups:   lat_or_lon [25]
   lat_or_lon t                          z
        <dbl> <dttm>              [kg/m^2]
 1       32.4 2018-09-13 19:00:00     1.94
 2       32.4 2018-09-13 20:00:00     1.39
 3       32.4 2018-09-13 21:00:00     4.54
 4       32.4 2018-09-13 22:00:00     4.85
 5       32.4 2018-09-13 23:00:00     2.66
 6       32.7 2018-09-13 19:00:00     1.60
 7       32.7 2018-09-13 20:00:00     2.13
 8       32.7 2018-09-13 21:00:00     5.31
 9       32.7 2018-09-13 22:00:00     4.59
10       32.7 2018-09-13 23:00:00     2.29
# ℹ 115 more rows
…
> library(units)
udunits database from /Users/clauswilke/github/ggridges/revdep/library.noindex/stxplore/units/share/udunits/udunits2.xml
> # Example
> prec_file = system.file("nc/test_stageiv_xyt.nc", package = "stars")
> prec <- read_ncdf(prec_file)
no 'var' specified, using Total_precipitation_surface_1_Hour_Accumulation
other available variables:
 lat, lon, time
Will return stars object with 236118 cells.
No projection information found in nc file. 
 Coordinate variable units found to be degrees, 
 assuming WGS84 Lat/Lon.
> temporal_means(prec)
$data
# A tibble: 236,118 × 3
      value time                id                                
   [kg/m^2] <dttm>              <chr>                             
 1        0 2018-09-13 19:00:00 -80.6112976074219-33.781177520752 
 2        0 2018-09-13 19:00:00 -80.5721740722656-33.7664184570312
 3        0 2018-09-13 19:00:00 -80.533073425293-33.7516403198242 
 4        0 2018-09-13 19:00:00 -80.4939956665039-33.7368392944336
 5        0 2018-09-13 19:00:00 -80.4549407958984-33.7220191955566
 6        0 2018-09-13 19:00:00 -80.4159088134766-33.7071800231934
 7        0 2018-09-13 19:00:00 -80.3769073486328-33.6923217773438
 8        0 2018-09-13 19:00:00 -80.3379287719727-33.6774444580078
 9        0 2018-09-13 19:00:00 -80.2989730834961-33.6625442504883
10        0 2018-09-13 19:00:00 -80.2600402832031-33.6476249694824
# ℹ 236,108 more rows

$averages
# A tibble: 23 × 2
   time                   meanz
   <dttm>              [kg/m^2]
 1 2018-09-13 19:00:00     2.40
 2 2018-09-13 20:00:00     2.79
 3 2018-09-13 21:00:00     2.30
 4 2018-09-13 22:00:00     2.05
 5 2018-09-13 23:00:00     3.21
 6 2018-09-14 00:00:00     4.35
 7 2018-09-14 01:00:00     3.57
 8 2018-09-14 02:00:00     4.11
 9 2018-09-14 03:00:00     3.84
10 2018-09-14 04:00:00     4.96
# ℹ 13 more rows
…
