…
> census_2008_bw_sf <- census_2008_bw %>%
+   st_as_sf(coords = c("gx", "gy"))
> 
> # Plot stems with plot boundary
> ggplot() +
+   geom_sf(data = census_2008_bw_sf, size = 0.25)
> 
> # Species-specific mortality between 2008 and 2014 censuses
> census_2008_bw %>%
+   left_join(census_2014_bw, by = c("treeID", "stemID"), suffix = c("_2008", "_2014")) %>%
+   mutate(mortality = ifelse(is.na(dbh_2014), 1, 0)) %>%
+   group_by(sp_2008) %>%
+   summarize(mortality = mean(mortality), n = n()) %>%
+   arrange(desc(n))
# A tibble: 36 × 3
   sp_2008              mortality     n
   <chr>                    <dbl> <int>
 1 black_cherry            0.203   9079
 2 red_maple               0.112   5958
 3 witch_hazel             0.239   3481
 4 serviceberry            0.122   1506
 5 white_oak               0.0771  1180
 6 black_oak               0.203   1171
 7 pignut_hickory          0.0346  1128
 8 sassafras               0.316    735
 9 american_elm            0.0880   591
10 black_red_oak_hybrid    0        536
# ℹ 26 more rows
…
Attaching package: ‘dplyr’

The following objects are masked from ‘package:stats’:

    filter, lag

The following objects are masked from ‘package:base’:

    intersect, setdiff, setequal, union

> 
> # Original 2008 census data
> census_2008_bw
# A tibble: 27,193 × 8
   treeID stemID sp              gx    gy   dbh date       codes
    <dbl>  <dbl> <chr>        <dbl> <dbl> <dbl> <date>     <chr>
 1      1      1 white_oak      8.7  108.  41.2 2008-07-01 M    
 2      2      1 serviceberry  10.8  109.   5.9 2008-07-01 M    
 3      3      1 black_cherry  11.6  106.  45.2 2008-07-01 M    
 4  14951      1 black_cherry  12    107    3.8 2008-07-01 M    
 5      4      1 red_maple     12.5  108.   4.1 2008-07-01 M    
 6      5      1 red_maple     12.5  106.   4.6 2008-07-01 M    
 7      6      1 red_maple     13.3  107.   8.3 2008-07-01 M    
 8      7      1 red_maple     14.9  106.   6.1 2008-07-01 M    
 9      8      1 red_maple     15.6  109    7.7 2008-07-01 M    
10      9      1 red_maple     16.5  108.   4   2008-07-01 M    
# ℹ 27,183 more rows
> 
> # 2008 census data with additional species information
> census_2008_bw %>%
+   left_join(species_bw, by = "sp")
# A tibble: 27,193 × 13
   treeID stemID sp          gx    gy   dbh date       codes genus species latin
    <dbl>  <dbl> <chr>    <dbl> <dbl> <dbl> <date>     <chr> <chr> <chr>   <chr>
 1      1      1 white_o…   8.7  108.  41.2 2008-07-01 M     quer… alba    quer…
 2      2      1 service…  10.8  109.   5.9 2008-07-01 M     amel… arborea amel…
 3      3      1 black_c…  11.6  106.  45.2 2008-07-01 M     prun… seroti… prun…
 4  14951      1 black_c…  12    107    3.8 2008-07-01 M     prun… seroti… prun…
 5      4      1 red_map…  12.5  108.   4.1 2008-07-01 M     acer  rubrum  acer…
 6      5      1 red_map…  12.5  106.   4.6 2008-07-01 M     acer  rubrum  acer…
 7      6      1 red_map…  13.3  107.   8.3 2008-07-01 M     acer  rubrum  acer…
 8      7      1 red_map…  14.9  106.   6.1 2008-07-01 M     acer  rubrum  acer…
 9      8      1 red_map…  15.6  109    7.7 2008-07-01 M     acer  rubrum  acer…
10      9      1 red_map…  16.5  108.   4   2008-07-01 M     acer  rubrum  acer…
# ℹ 27,183 more rows
# ℹ 2 more variables: family <chr>, trait_group <chr>
…
