…
> tmax <- tmax[!oob]
> 
> # Number of observations after truncation
> N <- length(x)
> 
> # Randomly interval censor 30% of observations
> cens <- rbinom(N, 1, 0.3) == 1L
> xmin <- x
> xmax <- x
> xmin[cens] <- pmax(tmin[cens], floor(x[cens]))
> xmax[cens] <- pmin(tmax[cens], ceiling(x[cens]))
> x[cens] <- NA
> 
> trunc_obs(x, xmin, xmax, tmin, tmax)
# A tibble: 44 × 6
        x  xmin  xmax  tmin  tmax     w
    <dbl> <dbl> <dbl> <dbl> <dbl> <dbl>
 1  0.872 0.872 0.872 0.548  1.77     1
 2 NA     1     2     0.101  2.08     1
 3 NA     1     2     0.927  2.25     1
 4  0.294 0.294 0.294 0.283  1.79     1
 5 NA     2     2.71  0.783  2.71     1
 6  1.31  1.31  1.31  0.517  2.01     1
 7  0.674 0.674 0.674 0.269  1.73     1
 8 NA     1     1.56  0.181  1.56     1
 9  1.28  1.28  1.28  0.563  1.74     1
10  0.588 0.588 0.588 0.129  1.94     1
# ℹ 34 more rows
…
