…
> 
> ### ** Examples
> 
> # run specification curve analysis
> results <- run_specs(df = example_data,
+                      y = c("y1", "y2"),
+                      x = c("x1", "x2"),
+                      model = c("lm"),
+                      controls = c("c1", "c2"),
+                      subsets = list(group1 = unique(example_data$group1),
+                                     group2 = unique(example_data$group2)))
> 
> # Check results frame
> results
# A tibble: 192 × 23
   x     y     model controls estimate std.error statistic  p.value conf.low
   <chr> <chr> <chr> <chr>       <dbl>     <dbl>     <dbl>    <dbl>    <dbl>
 1 x1    y1    lm    c1 + c2    0.580     0.0698      8.30 2.69e-15   0.443 
 2 x2    y1    lm    c1 + c2    0.173     0.0559      3.10 2.12e- 3   0.0632
 3 x1    y2    lm    c1 + c2   -0.232     0.0698     -3.32 9.94e- 4  -0.369 
 4 x2    y2    lm    c1 + c2    0.0872    0.0522      1.67 9.58e- 2  -0.0155
 5 x1    y1    lm    c1         0.599     0.0679      8.81 7.26e-17   0.465 
 6 x2    y1    lm    c1         0.204     0.0538      3.79 1.78e- 4   0.0981
 7 x1    y2    lm    c1        -0.387     0.0765     -5.05 7.25e- 7  -0.537 
 8 x2    y2    lm    c1        -0.0693    0.0576     -1.20 2.30e- 1  -0.183 
 9 x1    y1    lm    c2         0.596     0.0678      8.79 8.65e-17   0.463 
10 x2    y1    lm    c2         0.203     0.0525      3.87 1.29e- 4   0.100 
# ℹ 182 more rows
# ℹ 14 more variables: conf.high <dbl>, fit_r.squared <dbl>,
#   fit_adj.r.squared <dbl>, fit_sigma <dbl>, fit_statistic <dbl>,
#   fit_p.value <dbl>, fit_df <dbl>, fit_logLik <dbl>, fit_AIC <dbl>,
#   fit_BIC <dbl>, fit_deviance <dbl>, fit_df.residual <int>, fit_nobs <int>,
#   subsets <chr>
…
  x     y       median    mad    min    max     q25     q75   obs
  <chr> <chr>    <dbl>  <dbl>  <dbl>  <dbl>   <dbl>   <dbl> <dbl>
1 x1    y1     0.605   0.0446  0.446  0.678  0.589   0.638    250
2 x1    y2    -0.272   0.0905 -0.490 -0.124 -0.314  -0.207    250
3 x2    y1     0.229   0.0651  0.107  0.438  0.193   0.276    250
4 x2    y2    -0.00536 0.115  -0.204  0.184 -0.0784  0.0731   250
> 
> # Summary of other parameters across several analytical choices
> summarise_specs(results,
+                 subsets, controls,
+                 var = p.value,
+                 stats = list(median = median,
+                              min = min,
+                              max = max))
# A tibble: 48 × 6
# Groups:   subsets [12]
   subsets                           controls      median      min     max   obs
   <chr>                             <chr>          <dbl>    <dbl>   <dbl> <dbl>
 1 all                               c1          1.40e-14 4.13e-49 1.02e-3  1000
 2 all                               c1 + c2     2.32e- 8 2.08e-46 7.27e-2  1000
 3 all                               c2          4.76e- 8 7.41e-51 9.24e-2  1000
 4 all                               no covaria… 1.91e-14 8.09e-54 9.07e-4  1000
 5 group1 = middle                   c1          8.92e- 5 7.26e-17 2.30e-1   331
 6 group1 = middle                   c1 + c2     1.56e- 3 2.69e-15 9.58e-2   331
 7 group1 = middle                   c2          5.67e- 4 8.65e-17 1.52e-1   331
 8 group1 = middle                   no covaria… 5.05e- 6 2.35e-18 2.14e-1   331
 9 group1 = middle & group2 = female c1          7.73e- 2 3.24e- 8 3.48e-1   168
10 group1 = middle & group2 = female c1 + c2     4.10e- 2 6.64e- 8 2.05e-1   168
# ℹ 38 more rows
…
