…
+       subset = subset(dat, x > 500)
+     )
+   }
+ )
Running with:
   rows  cols   rep
1  1000    10     1
2 10000    10     1
3  1000   100     1
4 10000   100     1
5  1000    10     2
6 10000    10     2
7  1000   100     2
8 10000   100     2
# A tibble: 24 × 16
   expression  rows  cols   rep      min   median `itr/sec` mem_alloc `gc/sec`
   <bch:expr> <dbl> <dbl> <int> <bch:tm> <bch:tm>     <dbl> <bch:byt>    <dbl>
 1 bracket     1000    10     1  48.42µs  55.92µs    17886.   112.6KB     46.8
 2 which       1000    10     1  46.95µs  51.78µs    19212.   53.77KB     44.8
 3 subset      1000    10     1   59.9µs  68.88µs    14436.  124.46KB     21.5
 4 bracket    10000    10     1 383.64µs  429.8µs     2266.    1.13MB     45.8
 5 which      10000    10     1 239.32µs 265.02µs     3584.  573.48KB     46.9
 6 subset     10000    10     1 443.42µs 495.53µs     2001.    1.25MB     74.1
 7 bracket     1000   100     1 382.41µs 449.65µs     2262.  1002.7KB     74.6
 8 which       1000   100     1 365.19µs 391.71µs     2560.  408.16KB     44.9
 9 subset      1000   100     1 416.81µs 463.59µs     2169. 1023.91KB     47.2
10 bracket    10000   100     1   2.78ms   2.96ms      328.    9.86MB    524. 
# ℹ 14 more rows
# ℹ 7 more variables: n_itr <int>, n_gc <dbl>, total_time <bch:tm>,
#   result <list>, memory <list>, time <list>, gc <list>
…
