…
> ### * gr_help_params
> 
> flush(stderr()); flush(stdout())
> 
> ### Name: gr_help_params
> ### Title: Get the information about parameters used to separate the
> ###   hydrograph
> ### Aliases: gr_help_params
> 
> ### ** Examples
> 
> library(grwat)
> 
> gr_help_params()
# A tibble: 39 × 12
       N name_old name       example desc  units formula comments pics  desc_rus
   <dbl> <chr>    <chr>      <chr>   <chr> <chr> <chr>   <chr>    <lgl> <chr>   
 1     1 mome     winmon     11      the … month  <NA>   "not us… NA    месяц, …
 2     2 grad     grad1      1.5     rate… %      <NA>   "if cha… NA    интенси…
 3     3 grad1    grad2      2       rate… %     "\"\""  "\"\""   NA    интенси…
 4     4 kdQgr1   gratio     150     maxi… %      <NA>   "can be… NA    максима…
 5     5 polmon1  spmon1     2       the … month  <NA>   "can be… NA    cамый р…
 6     6 polmon2  spmon2     5       the … month  <NA>   "can be… NA    самый п…
 7     7 polkol1  sptriseda… 15      amou… days   <NA>    <NA>    NA    количес…
 8     8 polkol2  spriseday… 25      amou… days   <NA>    <NA>    NA    количес…
 9     9 polkol3  spdays     30      amou… days   <NA>   "can be… NA    количес…
10    10 polgrad1 sprise     10      mean… %      <NA>    <NA>    NA    значени…
# ℹ 29 more rows
# ℹ 2 more variables: role_1 <chr>, role_2 <chr>
…
> nameEx("gr_help_vars")
> ### * gr_help_vars
> 
> flush(stderr()); flush(stdout())
> 
> ### Name: gr_help_vars
> ### Title: Hydrograph separation variables
> ### Aliases: gr_help_vars
> 
> ### ** Examples
> 
> library(grwat)
> 
> gr_help_vars()
# A tibble: 57 × 21
      ID Position Width Source Name_old    Name   Units Unitsua Unitsen Readtype
   <dbl>    <dbl> <dbl>  <dbl> <chr>       <chr>  <chr> <chr>   <chr>   <chr>   
 1     1        1     7      1 year_number Number <NA>  <NA>    <NA>    integer 
 2     2        8    10      1 Year1       Year1  Год   Рок     Year    integer 
 3     3       18    10      1 Year2       Year2  Год   Рок     Year    integer 
 4     4       28    15      1 datestart   Dspst… Дата  Дата    Date    Date    
 5     5       43    15      1 datepolend  Dspend Дата  Дата    Date    Date    
 6    57        0     0      0 PolProd     Tsp    Дней  Дней    Days    integer 
 7     6       58    10      1 Qy          Qy     м^3/с м^3/с   m^3/s   double  
 8     7       68    10      1 Qmax        Qspmax м^3/с м^3/с   m^3/s   double  
 9     8       78    15      1 datemax     Dspmax Дата  Дата    Date    Date    
10     9       93    10      1 Qygr        Qygr   м^3/с м^3/с   m^3/s   double  
# ℹ 47 more rows
# ℹ 11 more variables: Type <chr>, Test <dbl>, Desc <chr>, Descua <chr>,
#   Descen <chr>, Group <chr>, Winter <dbl>, Chart <chr>, Color <chr>,
#   Order <dbl>, Range <chr>
…
