…
+       subset = subset(dat, x > 500)
+     )
+   }
+ )
Running with:
   rows  cols   rep
1  1000    10     1
2 10000    10     1
3  1000   100     1
4 10000   100     1
5  1000    10     2
6 10000    10     2
7  1000   100     2
8 10000   100     2
# A tibble: 24 × 16
   expression  rows  cols   rep      min   median `itr/sec` mem_alloc `gc/sec`
   <bch:expr> <dbl> <dbl> <int> <bch:tm> <bch:tm>     <dbl> <bch:byt>    <dbl>
 1 bracket     1000    10     1  52.15µs  57.93µs    16850.   112.6KB     48.6
 2 which       1000    10     1  50.43µs  54.37µs    17908.   53.77KB     21.2
 3 subset      1000    10     1  64.21µs  72.73µs    13611.  124.46KB     46.9
 4 bracket    10000    10     1  392.7µs 431.18µs     2286.    1.13MB     71.4
 5 which      10000    10     1 249.81µs 282.43µs     3513.  573.48KB     45.0
 6 subset     10000    10     1 454.32µs 491.34µs     1999.    1.25MB     47.0
 7 bracket     1000   100     1 421.77µs 477.59µs     2073.  1002.7KB     74.0
 8 which       1000   100     1 386.43µs 413.85µs     2392.  408.16KB     43.9
 9 subset      1000   100     1 456.33µs 508.97µs     1739. 1023.91KB     46.4
10 bracket    10000   100     1   3.28ms   3.49ms      284.    9.86MB    397. 
# ℹ 14 more rows
# ℹ 7 more variables: n_itr <int>, n_gc <dbl>, total_time <bch:tm>,
#   result <list>, memory <list>, time <list>, gc <list>
…
