Introduction to ggridges • ggridges
…
Second, there may be scenarios in which you don’t want geom_density_ridges to do any density estimation, for example because you have done so already yourself. In this case, you can use stat_identity. The benefit of using geom_density_ridges with stat_identiy over using geom_ridgeline directly is that geom_density_ridges provides automatic scaling.

As an example, assume we have calculated density curves for the Sepal.Length column in the iris dataset:

library(dplyr)

iris_densities <- iris %>%
  group_by(Species) %>%
  group_modify(~ ggplot2:::compute_density(.x$Sepal.Length, NULL)) %>%
  rename(Sepal.Length = x)

iris_densities

## # A tibble: 1,536 x 7
## # Groups:   Species [3]
##    Species Sepal.Length  density   scaled ndensity  count     n
##    <fct>          <dbl>    <dbl>    <dbl>    <dbl>  <dbl> <int>
##  1 setosa          3.93 0.000869 0.000701 0.000701 0.0435    50
##  2 setosa          3.94 0.000973 0.000785 0.000785 0.0487    50
##  3 setosa          3.94 0.00109  0.000876 0.000876 0.0543    50
##  4 setosa          3.94 0.00121  0.000975 0.000975 0.0604    50
##  5 setosa          3.95 0.00135  0.00109  0.00109  0.0673    50
##  6 setosa          3.95 0.00150  0.00121  0.00121  0.0749    50
##  7 setosa          3.96 0.00166  0.00134  0.00134  0.0831    50
##  8 setosa          3.96 0.00184  0.00149  0.00149  0.0922    50
##  9 setosa          3.97 0.00205  0.00165  0.00165  0.102     50
## 10 setosa          3.97 0.00226  0.00183  0.00183  0.113     50
## # … with 1,526 more rows
…
