…
> ### * brm_data
> 
> flush(stderr()); flush(stdout())
> 
> ### Name: brm_data
> ### Title: Create and preprocess an MMRM dataset.
> ### Aliases: brm_data
> 
> ### ** Examples
> 
> set.seed(0)
> data <- brm_simulate()$data
> colnames(data) <- paste0("col_", colnames(data))
> data
# A tibble: 800 × 4
   col_response col_group col_patient col_time
          <dbl> <chr>     <chr>       <chr>   
 1         1.30 group 1   patient 1   time 1  
 2         2.52 group 1   patient 1   time 2  
 3         2.63 group 1   patient 1   time 3  
 4         1.98 group 1   patient 1   time 4  
 5         1.22 group 1   patient 2   time 1  
 6         2.63 group 1   patient 2   time 2  
 7         2.38 group 1   patient 2   time 3  
 8         2.52 group 1   patient 2   time 4  
 9         1.32 group 1   patient 3   time 1  
10         2.63 group 1   patient 3   time 2  
# ℹ 790 more rows
> brm_data(
+   data = data,
+   outcome = "col_response",
+   role = "response",
+   group = "col_group",
+   time = "col_time",
+   patient = "col_patient"
+ )
# A tibble: 800 × 4
   col_response col_group col_time col_patient
          <dbl> <chr>     <chr>    <chr>      
 1        1.30  group.1   time.1   patient 1  
 2        2.52  group.1   time.2   patient 1  
 3        2.63  group.1   time.3   patient 1  
 4        1.98  group.1   time.4   patient 1  
 5       -0.293 group.1   time.1   patient 10 
 6        0.484 group.1   time.2   patient 10 
 7        0.974 group.1   time.3   patient 10 
 8        0.349 group.1   time.4   patient 10 
 9       -0.274 group.1   time.1   patient 100
10        0.782 group.1   time.2   patient 100
# ℹ 790 more rows
…
> ### Aliases: brm_marginal_data
> 
> ### ** Examples
> 
> set.seed(0L)
> data <- brm_data(
+   data = brm_simulate()$data,
+   outcome = "response",
+   role = "response",
+   group = "group",
+   time = "time",
+   patient = "patient"
+ )
> brm_marginal_data(data = data)
# A tibble: 56 × 4
   statistic group   time     value
   <chr>     <chr>   <chr>    <dbl>
 1 lower     group.1 time.1 -0.0509
 2 lower     group.1 time.2  1.30  
 3 lower     group.1 time.3  1.22  
 4 lower     group.1 time.4  0.409 
 5 lower     group.2 time.1  1.19  
 6 lower     group.2 time.2  2.54  
 7 lower     group.2 time.3  2.47  
 8 lower     group.2 time.4  1.63  
 9 mean      group.1 time.1 -0.150 
10 mean      group.1 time.2  1.19  
# ℹ 46 more rows
…
> nameEx("brm_simulate")
> ### * brm_simulate
> 
> flush(stderr()); flush(stdout())
> 
> ### Name: brm_simulate
> ### Title: Simulate an MMRM.
> ### Aliases: brm_simulate
> 
> ### ** Examples
> 
> set.seed(0L)
> simulation <- brm_simulate()
> simulation$data
# A tibble: 800 × 4
   response group   patient   time  
      <dbl> <chr>   <chr>     <chr> 
 1     1.30 group 1 patient 1 time 1
 2     2.52 group 1 patient 1 time 2
 3     2.63 group 1 patient 1 time 3
 4     1.98 group 1 patient 1 time 4
 5     1.22 group 1 patient 2 time 1
 6     2.63 group 1 patient 2 time 2
 7     2.38 group 1 patient 2 time 3
 8     2.52 group 1 patient 2 time 4
 9     1.32 group 1 patient 3 time 1
10     2.63 group 1 patient 3 time 2
# ℹ 790 more rows
…
